32, 6, 0.007947
34, 6, 0.008512
36, 15, 0.008822
38, 17, 0.009269
40, 40, 0.010016
42, 45, 0.011551
44, 89, 0.017285
46, 116, 0.021603
48, 199, 0.045624
50, 271, 0.097933
56, 408, 0.202703
58, 408, 0.246084
60, 408, 0.256259
62, 408, 0.266539
64, 408, 0.229728
66, 272, 0.223322
68, 272, 0.233942
70, 272, 0.240687
72, 272, 0.23147
74, 272, 0.276892
76, 272, 0.282847
78, 272, 0.294666
80, 272, 0.268108
82, 272, 0.325016
84, 272, 0.337943
86, 272, 0.344845
88, 272, 0.318946
90, 272, 0.371599
92, 272, 0.389882
94, 272, 0.383192
96, 272, 0.357849
98, 204, 0.344462
100, 204, 0.362186
102, 204, 0.36173
104, 204, 0.36012
106, 204, 0.400808
108, 204, 0.416026
110, 204, 0.41862
112, 204, 0.401612
114, 204, 0.453679
116, 204, 0.474573
118, 204, 0.474567
120, 204, 0.45177
122, 204, 0.510419
124, 204, 0.52652
126, 204, 0.531762
128, 204, 0.489238
130, 136, 0.328914
132, 136, 0.348715
134, 136, 0.340559
136, 136, 0.343808
138, 136, 0.369774
140, 136, 0.389058
142, 136, 0.384453
144, 136, 0.373028
146, 136, 0.410499
148, 136, 0.430923
150, 136, 0.42706
152, 136, 0.4109
154, 136, 0.449077
156, 136, 0.466623
158, 136, 0.460818
160, 136, 0.44201
162, 136, 0.608611
164, 136, 0.623327
166, 136, 0.627089
168, 136, 0.620888
170, 136, 0.676436
172, 136, 0.687655
174, 136, 0.70042
176, 136, 0.665561
178, 136, 0.72706
180, 136, 0.76299
182, 136, 0.739595
184, 136, 0.71773
186, 136, 0.780665
188, 136, 0.785519
190, 136, 0.800804
192, 136, 0.755685
194, 68, 0.266133
196, 68, 0.304308
198, 68, 0.280953
200, 68, 0.28657
202, 68, 0.290704
204, 68, 0.320039
206, 68, 0.305244
208, 68, 0.298464
210, 68, 0.312263
212, 68, 0.345532
214, 68, 0.326322
216, 68, 0.326178
218, 68, 0.32779
220, 68, 0.370258
222, 68, 0.35112
224, 68, 0.34202
226, 68, 0.440563
228, 68, 0.445038
230, 68, 0.442624
232, 68, 0.440206
234, 68, 0.468923
236, 68, 0.467656
238, 68, 0.475589
240, 68, 0.464691
242, 68, 0.49857
244, 68, 0.497002
246, 68, 0.510845
248, 68, 0.492396
250, 68, 0.528246
252, 68, 0.524848
254, 68, 0.527987
256, 68, 0.510199
