32, 6, 0.007204
34, 6, 0.008078
36, 15, 0.008557
38, 17, 0.008989
40, 40, 0.009433
42, 45, 0.011215
44, 89, 0.01672
46, 116, 0.021234
48, 199, 0.04498
50, 271, 0.100508
56, 272, 0.102962
58, 272, 0.129476
60, 272, 0.127299
62, 272, 0.129499
64, 272, 0.111551
66, 136, 0.057607
68, 136, 0.05595
70, 136, 0.062211
72, 136, 0.058309
74, 136, 0.069519
76, 136, 0.066739
78, 136, 0.073929
80, 136, 0.065335
82, 136, 0.082745
84, 136, 0.081471
86, 136, 0.088177
88, 136, 0.078372
90, 136, 0.096777
92, 136, 0.095064
94, 136, 0.106928
96, 136, 0.088215
98, 136, 0.165315
100, 136, 0.161186
102, 136, 0.169956
104, 136, 0.165713
106, 136, 0.185501
108, 136, 0.189768
110, 136, 0.196317
112, 136, 0.182353
114, 136, 0.215365
116, 136, 0.215583
118, 136, 0.222226
120, 136, 0.210163
122, 136, 0.235978
124, 136, 0.243295
126, 136, 0.253794
128, 136, 0.230888
130, 68, 0.0845
132, 68, 0.08573
134, 68, 0.093012
136, 68, 0.090795
138, 68, 0.095117
140, 68, 0.096532
142, 68, 0.100734
144, 68, 0.100091
146, 68, 0.108647
148, 68, 0.110713
150, 68, 0.114244
152, 68, 0.111822
154, 68, 0.119501
156, 68, 0.120952
158, 68, 0.122844
160, 68, 0.117317
162, 68, 0.178841
164, 68, 0.171323
166, 68, 0.182517
168, 68, 0.170828
170, 68, 0.197408
172, 68, 0.18974
174, 68, 0.203072
176, 68, 0.183384
178, 68, 0.214602
180, 68, 0.206026
182, 68, 0.217713
184, 68, 0.203791
186, 68, 0.230455
188, 68, 0.2205
190, 68, 0.235648
192, 68, 0.216451
194, 68, 0.286707
196, 68, 0.304966
198, 68, 0.306039
200, 68, 0.277517
202, 68, 0.321824
204, 68, 0.324391
206, 68, 0.337038
208, 68, 0.293864
210, 68, 0.345524
212, 68, 0.350554
214, 68, 0.365591
216, 68, 0.315625
218, 68, 0.362039
220, 68, 0.374498
222, 68, 0.385537
224, 68, 0.335664
226, 68, 0.446379
228, 68, 0.447213
230, 68, 0.461313
232, 68, 0.459658
234, 68, 0.481194
236, 68, 0.480434
238, 68, 0.489834
240, 68, 0.484178
242, 68, 0.511158
244, 68, 0.512835
246, 68, 0.525377
248, 68, 0.512441
250, 68, 0.533193
252, 68, 0.55336
254, 68, 0.555052
256, 68, 0.534134