32, 6, 0.003153
34, 6, 0.003104
36, 15, 0.003132
38, 17, 0.003346
40, 40, 0.003494
42, 45, 0.003715
44, 89, 0.003865
46, 116, 0.004149
48, 199, 0.005282
50, 271, 0.005883
56, 924, 0.016494
58, 952, 0.017233
60, 952, 0.017684
62, 952, 0.018312
64, 952, 0.018867
66, 612, 0.019205
68, 612, 0.019817
70, 612, 0.020485
72, 612, 0.020946
74, 612, 0.02152
76, 612, 0.022139
78, 612, 0.022619
80, 612, 0.023207
82, 612, 0.023829
84, 612, 0.024416
86, 612, 0.025041
88, 612, 0.025588
90, 612, 0.026168
92, 612, 0.026879
94, 612, 0.027422
96, 612, 0.02795
98, 476, 0.026787
100, 476, 0.027303
102, 476, 0.028059
104, 476, 0.028411
106, 476, 0.02911
108, 476, 0.029549
110, 476, 0.030141
112, 476, 0.030705
114, 476, 0.031284
116, 476, 0.031924
118, 476, 0.032502
120, 476, 0.033036
122, 476, 0.033692
124, 476, 0.034172
126, 476, 0.034674
128, 476, 0.035225
130, 340, 0.036396
132, 340, 0.03697
134, 340, 0.03761
136, 340, 0.038098
138, 340, 0.03877
140, 340, 0.039242
142, 340, 0.039869
144, 340, 0.040353
146, 340, 0.040968
148, 340, 0.041473
150, 340, 0.04214
152, 340, 0.042716
154, 340, 0.0432
156, 340, 0.043768
158, 340, 0.044305
160, 340, 0.045117
162, 272, 0.042388
164, 272, 0.042978
166, 272, 0.04342
168, 272, 0.044025
170, 272, 0.044574
172, 272, 0.045118
174, 272, 0.045615
176, 272, 0.04629
178, 272, 0.04672
180, 272, 0.047194
182, 272, 0.04777
184, 272, 0.048366
186, 272, 0.0489
188, 272, 0.049558
190, 272, 0.050106
192, 272, 0.050487
194, 272, 0.058597
196, 272, 0.059342
198, 272, 0.059969
200, 272, 0.060545
202, 272, 0.061105
204, 272, 0.06214
206, 272, 0.062628
208, 272, 0.063274
210, 272, 0.06394
212, 272, 0.064555
214, 272, 0.06521
216, 272, 0.065723
218, 272, 0.06651
220, 272, 0.067107
222, 272, 0.067635
224, 272, 0.068329
226, 204, 0.059197
228, 204, 0.059442
230, 204, 0.060155
232, 204, 0.06076
234, 204, 0.061308
236, 204, 0.061905
238, 204, 0.062571
240, 204, 0.063063
242, 204, 0.063527
244, 204, 0.064188
246, 204, 0.06463
248, 204, 0.065249
250, 204, 0.065751
252, 204, 0.066208
254, 204, 0.066719
256, 204, 0.06736