32, 6, 0.003085
34, 6, 0.003038
36, 15, 0.003132
38, 17, 0.003263
40, 40, 0.003545
42, 45, 0.003681
44, 89, 0.003913
46, 116, 0.004014
48, 199, 0.005108
50, 271, 0.005858
56, 680, 0.012726
58, 680, 0.012894
60, 680, 0.013289
62, 680, 0.013778
64, 680, 0.014274
66, 408, 0.013622
68, 408, 0.013998
70, 408, 0.014402
72, 408, 0.014812
74, 408, 0.015208
76, 408, 0.015681
78, 408, 0.016048
80, 408, 0.016516
82, 408, 0.016886
84, 408, 0.017329
86, 408, 0.017697
88, 408, 0.018117
90, 408, 0.018856
92, 408, 0.019282
94, 408, 0.019786
96, 408, 0.020067
98, 340, 0.019995
100, 340, 0.0204
102, 340, 0.02089
104, 340, 0.021262
106, 340, 0.022015
108, 340, 0.022456
110, 340, 0.022825
112, 340, 0.023277
114, 340, 0.023701
116, 340, 0.024203
118, 340, 0.024514
120, 340, 0.024912
122, 340, 0.025391
124, 340, 0.025859
126, 340, 0.026205
128, 340, 0.026647
130, 272, 0.029403
132, 272, 0.029855
134, 272, 0.030623
136, 272, 0.031397
138, 272, 0.031574
140, 272, 0.031998
142, 272, 0.032505
144, 272, 0.032896
146, 272, 0.033388
148, 272, 0.033884
150, 272, 0.034361
152, 272, 0.034923
154, 272, 0.035431
156, 272, 0.035818
158, 272, 0.03614
160, 272, 0.036748
162, 204, 0.035289
164, 204, 0.035755
166, 204, 0.036233
168, 204, 0.036573
170, 204, 0.03719
172, 204, 0.037549
174, 204, 0.037929
176, 204, 0.038428
178, 204, 0.038926
180, 204, 0.039418
182, 204, 0.039776
184, 204, 0.040197
186, 204, 0.040825
188, 204, 0.04107
190, 204, 0.041516
192, 204, 0.042119
194, 136, 0.03558
196, 136, 0.036118
198, 136, 0.036422
200, 136, 0.036901
202, 136, 0.037312
204, 136, 0.037588
206, 136, 0.038008
208, 136, 0.038444
210, 136, 0.038828
212, 136, 0.039153
214, 136, 0.039619
216, 136, 0.039871
218, 136, 0.040415
220, 136, 0.040706
222, 136, 0.041343
224, 136, 0.04185
226, 136, 0.045356
228, 136, 0.045673
230, 136, 0.046058
232, 136, 0.046316
234, 136, 0.046894
236, 136, 0.047349
238, 136, 0.047696
240, 136, 0.04818
242, 136, 0.048569
244, 136, 0.04898
246, 136, 0.049508
248, 136, 0.049805
250, 136, 0.050137
252, 136, 0.050638
254, 136, 0.05114
256, 136, 0.05139